tidymodels Gallery – 2 Dealing with datetime columns
…
The following object is masked from 'package:stats':

    step

library(modeldata)

data("Chicago")

This is what you get if you don’t do anything to the date column.

recipe(ridership ~ date, data = Chicago) %>%
  prep() %>%
  bake(new_data = NULL)

# A tibble: 5,698 × 2
   date       ridership
   <date>         <dbl>
 1 2001-01-22     15.7 
 2 2001-01-23     15.8 
 3 2001-01-24     15.9 
 4 2001-01-25     15.9 
 5 2001-01-26     15.4 
 6 2001-01-27      2.42
 7 2001-01-28      1.47
 8 2001-01-29     15.5 
 9 2001-01-30     15.9 
10 2001-01-31     15.9 
# … with 5,688 more rows

step_date() turns the a date column into 3 columns by default. Day of week "dow", month "month", and year "year". step_data() keeps original columns by default, but can be removed by setting keep_original_cols = FALSE

recipe(ridership ~ date, data = Chicago) %>%
  step_date(date, keep_original_cols = FALSE) %>%
  prep() %>%
  bake(new_data = NULL)

# A tibble: 5,698 × 4
   ridership date_dow date_month date_year
       <dbl> <fct>    <fct>          <dbl>
 1     15.7  Mon      Jan             2001
 2     15.8  Tue      Jan             2001
 3     15.9  Wed      Jan             2001
 4     15.9  Thu      Jan             2001
 5     15.4  Fri      Jan             2001
 6      2.42 Sat      Jan             2001
 7      1.47 Sun      Jan             2001
 8     15.5  Mon      Jan             2001
 9     15.9  Tue      Jan             2001
10     15.9  Wed      Jan             2001
# … with 5,688 more rows

you can specify step_date() to only return some features by using the features argument.

recipe(ridership ~ date, data = Chicago) %>%
  step_date(date, features = "dow", keep_original_cols = FALSE) %>%
  prep() %>%
  bake(new_data = NULL)

# A tibble: 5,698 × 2
   ridership date_dow
       <dbl> <fct>   
 1     15.7  Mon     
 2     15.8  Tue     
 3     15.9  Wed     
 4     15.9  Thu     
 5     15.4  Fri     
 6      2.42 Sat     
 7      1.47 Sun     
 8     15.5  Mon     
 9     15.9  Tue     
10     15.9  Wed     
# … with 5,688 more rows

you can also get label = FALSE to have the features returned as numeric instead of factors.

recipe(ridership ~ date, data = Chicago) %>%
  step_date(date, label = FALSE, keep_original_cols = FALSE) %>%
  prep() %>%
  bake(new_data = NULL)

# A tibble: 5,698 × 4
   ridership date_dow date_month date_year
       <dbl>    <dbl>      <dbl>     <dbl>
 1     15.7         2          1      2001
 2     15.8         3          1      2001
 3     15.9         4          1      2001
 4     15.9         5          1      2001
 5     15.4         6          1      2001
 6      2.42        7          1      2001
 7      1.47        1          1      2001
 8     15.5         2          1      2001
 9     15.9         3          1      2001
10     15.9         4          1      2001
# … with 5,688 more rows
…
